Working with large dataset
…
3. Which monitoring site has the highest average level of sulfate?

## Source: local data frame [358 x 4]
## Groups: State.Code, County.Code [313]
## 
##    State.Code County.Code Site.Number avg_Sulfate
##         <chr>       <chr>       <chr>       <dbl>
## 1          39         081        0017    3.182189
## 2          42         003        0064    3.055483
## 3          54         039        1005    2.938800
## 4          18         019        0006    2.738700
## 5          39         153        0023    2.706449
## 6          39         035        0060    2.640185
## 7          39         087        0012    2.638311
## 8          54         051        1002    2.619043
## 9          21         111        0067    2.549750
## 10         18         037        2001    2.516367
## # ... with 348 more rows
…
6. How many monitoring sites are labelled as both RESIDENTIAL for “Land Use” and SUBURBAN for “Location Setting”?

## # A tibble: 1 × 1
##   n_obs
##   <int>
## 1  3527

7. What is the median level of “EC PM2.5 LC TOR” amongst monitoring sites that are labelled as both “RESIDENTIAL” and “SUBURBAN” in the eastern U.S., where eastern is defined as Longitude greater than or equal to -100?

Subsetting a new data set from data_aqs:

## # A tibble: 20,239 × 7
##    State.Code County.Code Site.Number     Land.Use      Location.Setting
##         <chr>       <chr>       <chr>        <chr>                 <chr>
## 1           1           1           1  RESIDENTIAL              SUBURBAN
## 2           1           1           2 AGRICULTURAL                 RURAL
## 3           1           1           3       FOREST                 RURAL
## 4           1           3           1      UNKNOWN                 RURAL
## 5           1           3           2   COMMERCIAL                 RURAL
## 6           1           3           3   COMMERCIAL URBAN AND CENTER CITY
## 7           1           3          10   COMMERCIAL              SUBURBAN
## 8           1           5           1   COMMERCIAL              SUBURBAN
## 9           1           5           2       FOREST              SUBURBAN
## 10          1           7           1 AGRICULTURAL                 RURAL
## # ... with 20,229 more rows, and 2 more variables: Longitude <dbl>,
## #   Latitude <dbl>

Subsetting a new data set from chemical:

## # A tibble: 2,108,467 × 7
##    State.Code County.Code Site.Number State.Name      Parameter.Name
##         <chr>       <chr>       <chr>      <chr>               <chr>
## 1           1           3          10    Alabama Ambient Temperature
## 2           1           3          10    Alabama Ambient Temperature
## 3           1           3          10    Alabama Ambient Temperature
## 4           1           3          10    Alabama Ambient Temperature
## 5           1           3          10    Alabama Ambient Temperature
## 6           1           3          10    Alabama Ambient Temperature
## 7           1           3          10    Alabama Ambient Temperature
## 8           1           3          10    Alabama Ambient Temperature
## 9           1           3          10    Alabama Ambient Temperature
## 10          1           3          10    Alabama Ambient Temperature
## # ... with 2,108,457 more rows, and 2 more variables:
## #   Arithmetic.Mean <dbl>, Date.Local <date>

Merging the two data sets together:

## # A tibble: 2,108,467 × 11
##    State.Code County.Code Site.Number State.Name      Parameter.Name
##         <chr>       <chr>       <chr>      <chr>               <chr>
## 1           1           3          10    Alabama Ambient Temperature
## 2           1           3          10    Alabama Ambient Temperature
## 3           1           3          10    Alabama Ambient Temperature
## 4           1           3          10    Alabama Ambient Temperature
## 5           1           3          10    Alabama Ambient Temperature
## 6           1           3          10    Alabama Ambient Temperature
## 7           1           3          10    Alabama Ambient Temperature
## 8           1           3          10    Alabama Ambient Temperature
## 9           1           3          10    Alabama Ambient Temperature
## 10          1           3          10    Alabama Ambient Temperature
## # ... with 2,108,457 more rows, and 6 more variables:
## #   Arithmetic.Mean <dbl>, Date.Local <date>, Land.Use <chr>,
## #   Location.Setting <chr>, Longitude <dbl>, Latitude <dbl>

## # A tibble: 1 × 1
##   median
##    <dbl>
## 1   0.61

8. Amongst monitoring sites that are labeled as COMMERCIAL for “Land Use”, which month of the year has the highest average levels of “Sulfate PM2.5 LC”?

Getting a new data set with a new by adding a new variable Month:

## # A tibble: 2,108,467 × 8
##    State.Code County.Code Site.Number State.Name      Parameter.Name
##         <chr>       <chr>       <chr>      <chr>               <chr>
## 1           1           3          10    Alabama Ambient Temperature
## 2           1           3          10    Alabama Ambient Temperature
## 3           1           3          10    Alabama Ambient Temperature
## 4           1           3          10    Alabama Ambient Temperature
## 5           1           3          10    Alabama Ambient Temperature
## 6           1           3          10    Alabama Ambient Temperature
## 7           1           3          10    Alabama Ambient Temperature
## 8           1           3          10    Alabama Ambient Temperature
## 9           1           3          10    Alabama Ambient Temperature
## 10          1           3          10    Alabama Ambient Temperature
## # ... with 2,108,457 more rows, and 3 more variables:
## #   Arithmetic.Mean <dbl>, Date.Local <date>, Month <chr>
…
